<?xml version="1.0" encoding="UTF-8"?>
<svg xmlns="http://www.w3.org/2000/svg" xmlns:xlink="http://www.w3.org/1999/xlink" width="223.85pt" height="430.573pt" viewBox="0 0 223.85 430.573" version="1.1">
<defs>
<g>
<symbol overflow="visible" id="glyph0-0">
<path style="stroke:none;" d=""/>
</symbol>
<symbol overflow="visible" id="glyph0-1">
<path style="stroke:none;" d="M 7.578125 -6.921875 C 7.578125 -6.953125 7.5625 -7.03125 7.46875 -7.03125 C 7.4375 -7.03125 7.421875 -7.015625 7.3125 -6.90625 L 6.625 -6.140625 C 6.53125 -6.28125 6.078125 -7.03125 4.96875 -7.03125 C 2.734375 -7.03125 0.5 -4.828125 0.5 -2.515625 C 0.5 -0.875 1.671875 0.21875 3.203125 0.21875 C 4.0625 0.21875 4.828125 -0.171875 5.359375 -0.640625 C 6.28125 -1.453125 6.453125 -2.359375 6.453125 -2.390625 C 6.453125 -2.5 6.34375 -2.5 6.328125 -2.5 C 6.265625 -2.5 6.21875 -2.46875 6.203125 -2.390625 C 6.109375 -2.109375 5.875 -1.390625 5.1875 -0.8125 C 4.5 -0.265625 3.875 -0.09375 3.359375 -0.09375 C 2.46875 -0.09375 1.40625 -0.609375 1.40625 -2.15625 C 1.40625 -2.734375 1.609375 -4.34375 2.609375 -5.515625 C 3.21875 -6.21875 4.15625 -6.71875 5.046875 -6.71875 C 6.0625 -6.71875 6.65625 -5.953125 6.65625 -4.796875 C 6.65625 -4.390625 6.625 -4.390625 6.625 -4.28125 C 6.625 -4.1875 6.734375 -4.1875 6.765625 -4.1875 C 6.890625 -4.1875 6.890625 -4.203125 6.953125 -4.390625 Z M 7.578125 -6.921875 "/>
</symbol>
<symbol overflow="visible" id="glyph0-2">
<path style="stroke:none;" d="M 7.375 -4.34375 C 7.375 -5.953125 6.3125 -7.03125 4.828125 -7.03125 C 2.6875 -7.03125 0.484375 -4.765625 0.484375 -2.4375 C 0.484375 -0.78125 1.609375 0.21875 3.046875 0.21875 C 5.15625 0.21875 7.375 -1.96875 7.375 -4.34375 Z M 3.09375 -0.046875 C 2.109375 -0.046875 1.421875 -0.84375 1.421875 -2.15625 C 1.421875 -2.609375 1.5625 -4.0625 2.328125 -5.21875 C 3.015625 -6.265625 3.984375 -6.78125 4.78125 -6.78125 C 5.59375 -6.78125 6.484375 -6.21875 6.484375 -4.734375 C 6.484375 -4.015625 6.21875 -2.46875 5.234375 -1.234375 C 4.75 -0.625 3.9375 -0.046875 3.09375 -0.046875 Z M 3.09375 -0.046875 "/>
</symbol>
<symbol overflow="visible" id="glyph0-3">
<path style="stroke:none;" d="M 3.015625 -3.15625 L 4.71875 -3.15625 C 6.125 -3.15625 7.515625 -4.1875 7.515625 -5.296875 C 7.515625 -6.078125 6.859375 -6.8125 5.546875 -6.8125 L 2.328125 -6.8125 C 2.140625 -6.8125 2.03125 -6.8125 2.03125 -6.625 C 2.03125 -6.5 2.109375 -6.5 2.3125 -6.5 C 2.4375 -6.5 2.625 -6.484375 2.734375 -6.484375 C 2.90625 -6.453125 2.953125 -6.4375 2.953125 -6.3125 C 2.953125 -6.28125 2.953125 -6.25 2.921875 -6.125 L 1.578125 -0.78125 C 1.484375 -0.390625 1.46875 -0.3125 0.671875 -0.3125 C 0.515625 -0.3125 0.40625 -0.3125 0.40625 -0.125 C 0.40625 0 0.515625 0 0.546875 0 C 0.828125 0 1.53125 -0.03125 1.8125 -0.03125 C 2.03125 -0.03125 2.25 -0.015625 2.453125 -0.015625 C 2.671875 -0.015625 2.890625 0 3.09375 0 C 3.171875 0 3.296875 0 3.296875 -0.203125 C 3.296875 -0.3125 3.203125 -0.3125 3.015625 -0.3125 C 2.65625 -0.3125 2.375 -0.3125 2.375 -0.484375 C 2.375 -0.546875 2.390625 -0.59375 2.40625 -0.65625 Z M 3.734375 -6.125 C 3.828125 -6.46875 3.84375 -6.5 4.28125 -6.5 L 5.234375 -6.5 C 6.0625 -6.5 6.59375 -6.234375 6.59375 -5.546875 C 6.59375 -5.15625 6.390625 -4.296875 6 -3.9375 C 5.5 -3.484375 4.90625 -3.40625 4.46875 -3.40625 L 3.0625 -3.40625 Z M 3.734375 -6.125 "/>
</symbol>
<symbol overflow="visible" id="glyph0-4">
<path style="stroke:none;" d="M 5.140625 -6.8125 C 5.140625 -6.8125 5.140625 -6.921875 5.015625 -6.921875 C 4.859375 -6.921875 3.921875 -6.828125 3.75 -6.8125 C 3.671875 -6.796875 3.609375 -6.75 3.609375 -6.625 C 3.609375 -6.5 3.703125 -6.5 3.84375 -6.5 C 4.328125 -6.5 4.34375 -6.4375 4.34375 -6.328125 L 4.3125 -6.125 L 3.71875 -3.765625 C 3.53125 -4.140625 3.25 -4.40625 2.796875 -4.40625 C 1.640625 -4.40625 0.40625 -2.9375 0.40625 -1.484375 C 0.40625 -0.546875 0.953125 0.109375 1.71875 0.109375 C 1.921875 0.109375 2.421875 0.0625 3.015625 -0.640625 C 3.09375 -0.21875 3.453125 0.109375 3.921875 0.109375 C 4.28125 0.109375 4.5 -0.125 4.671875 -0.4375 C 4.828125 -0.796875 4.96875 -1.40625 4.96875 -1.421875 C 4.96875 -1.53125 4.875 -1.53125 4.84375 -1.53125 C 4.75 -1.53125 4.734375 -1.484375 4.703125 -1.34375 C 4.53125 -0.703125 4.359375 -0.109375 3.953125 -0.109375 C 3.671875 -0.109375 3.65625 -0.375 3.65625 -0.5625 C 3.65625 -0.8125 3.671875 -0.875 3.703125 -1.046875 Z M 3.078125 -1.1875 C 3.015625 -1 3.015625 -0.984375 2.875 -0.8125 C 2.4375 -0.265625 2.03125 -0.109375 1.75 -0.109375 C 1.25 -0.109375 1.109375 -0.65625 1.109375 -1.046875 C 1.109375 -1.546875 1.421875 -2.765625 1.65625 -3.234375 C 1.96875 -3.8125 2.40625 -4.1875 2.8125 -4.1875 C 3.453125 -4.1875 3.59375 -3.375 3.59375 -3.3125 C 3.59375 -3.25 3.578125 -3.1875 3.5625 -3.140625 Z M 3.078125 -1.1875 "/>
</symbol>
<symbol overflow="visible" id="glyph0-5">
<path style="stroke:none;" d="M 2.859375 -6.8125 C 2.859375 -6.8125 2.859375 -6.921875 2.734375 -6.921875 C 2.5 -6.921875 1.78125 -6.84375 1.515625 -6.8125 C 1.4375 -6.8125 1.328125 -6.796875 1.328125 -6.625 C 1.328125 -6.5 1.421875 -6.5 1.5625 -6.5 C 2.046875 -6.5 2.0625 -6.4375 2.0625 -6.328125 L 2.03125 -6.125 L 0.59375 -0.390625 C 0.546875 -0.25 0.546875 -0.234375 0.546875 -0.171875 C 0.546875 0.0625 0.75 0.109375 0.84375 0.109375 C 1 0.109375 1.15625 -0.015625 1.203125 -0.15625 L 1.390625 -0.90625 L 1.609375 -1.796875 C 1.671875 -2.03125 1.734375 -2.25 1.78125 -2.46875 C 1.796875 -2.53125 1.890625 -2.859375 1.890625 -2.921875 C 1.921875 -3.015625 2.234375 -3.5625 2.578125 -3.84375 C 2.796875 -4 3.09375 -4.1875 3.53125 -4.1875 C 3.953125 -4.1875 4.0625 -3.84375 4.0625 -3.484375 C 4.0625 -2.953125 3.6875 -1.859375 3.453125 -1.25 C 3.375 -1.03125 3.3125 -0.90625 3.3125 -0.703125 C 3.3125 -0.234375 3.671875 0.109375 4.140625 0.109375 C 5.078125 0.109375 5.4375 -1.34375 5.4375 -1.421875 C 5.4375 -1.53125 5.359375 -1.53125 5.328125 -1.53125 C 5.21875 -1.53125 5.21875 -1.5 5.171875 -1.34375 C 5.03125 -0.8125 4.703125 -0.109375 4.15625 -0.109375 C 3.984375 -0.109375 3.921875 -0.203125 3.921875 -0.4375 C 3.921875 -0.6875 4 -0.921875 4.09375 -1.140625 C 4.25 -1.578125 4.703125 -2.765625 4.703125 -3.34375 C 4.703125 -3.984375 4.3125 -4.40625 3.5625 -4.40625 C 2.9375 -4.40625 2.453125 -4.09375 2.078125 -3.640625 Z M 2.859375 -6.8125 "/>
</symbol>
<symbol overflow="visible" id="glyph0-6">
<path style="stroke:none;" d="M 9.234375 -6.046875 C 9.328125 -6.40625 9.34375 -6.5 10.09375 -6.5 C 10.3125 -6.5 10.40625 -6.5 10.40625 -6.703125 C 10.40625 -6.8125 10.3125 -6.8125 10.140625 -6.8125 L 8.828125 -6.8125 C 8.5625 -6.8125 8.546875 -6.8125 8.4375 -6.625 L 4.796875 -0.9375 L 4.015625 -6.578125 C 3.984375 -6.8125 3.96875 -6.8125 3.703125 -6.8125 L 2.34375 -6.8125 C 2.15625 -6.8125 2.046875 -6.8125 2.046875 -6.625 C 2.046875 -6.5 2.140625 -6.5 2.328125 -6.5 C 2.46875 -6.5 2.640625 -6.484375 2.765625 -6.484375 C 2.921875 -6.453125 2.984375 -6.4375 2.984375 -6.3125 C 2.984375 -6.28125 2.96875 -6.25 2.9375 -6.125 L 1.671875 -1.0625 C 1.578125 -0.65625 1.40625 -0.34375 0.59375 -0.3125 C 0.546875 -0.3125 0.421875 -0.296875 0.421875 -0.125 C 0.421875 -0.03125 0.484375 0 0.5625 0 C 0.875 0 1.21875 -0.03125 1.5625 -0.03125 C 1.890625 -0.03125 2.25 0 2.578125 0 C 2.625 0 2.765625 0 2.765625 -0.203125 C 2.765625 -0.3125 2.65625 -0.3125 2.578125 -0.3125 C 2.015625 -0.3125 1.90625 -0.515625 1.90625 -0.75 C 1.90625 -0.8125 1.90625 -0.875 1.9375 -0.984375 L 3.296875 -6.40625 L 3.3125 -6.40625 L 4.171875 -0.234375 C 4.1875 -0.109375 4.203125 0 4.3125 0 C 4.421875 0 4.484375 -0.109375 4.53125 -0.171875 L 8.5625 -6.484375 L 8.578125 -6.484375 L 7.140625 -0.78125 C 7.046875 -0.390625 7.03125 -0.3125 6.234375 -0.3125 C 6.078125 -0.3125 5.96875 -0.3125 5.96875 -0.125 C 5.96875 0 6.078125 0 6.109375 0 C 6.390625 0 7.0625 -0.03125 7.34375 -0.03125 C 7.75 -0.03125 8.1875 0 8.59375 0 C 8.65625 0 8.78125 0 8.78125 -0.203125 C 8.78125 -0.3125 8.6875 -0.3125 8.5 -0.3125 C 8.140625 -0.3125 7.859375 -0.3125 7.859375 -0.484375 C 7.859375 -0.53125 7.859375 -0.546875 7.90625 -0.734375 Z M 9.234375 -6.046875 "/>
</symbol>
<symbol overflow="visible" id="glyph0-7">
<path style="stroke:none;" d="M 3.734375 -6.03125 C 3.8125 -6.390625 3.84375 -6.5 4.78125 -6.5 C 5.078125 -6.5 5.15625 -6.5 5.15625 -6.6875 C 5.15625 -6.8125 5.046875 -6.8125 5 -6.8125 C 4.671875 -6.8125 3.859375 -6.78125 3.53125 -6.78125 C 3.234375 -6.78125 2.5 -6.8125 2.203125 -6.8125 C 2.140625 -6.8125 2.015625 -6.8125 2.015625 -6.609375 C 2.015625 -6.5 2.109375 -6.5 2.296875 -6.5 C 2.3125 -6.5 2.5 -6.5 2.671875 -6.484375 C 2.84375 -6.453125 2.9375 -6.453125 2.9375 -6.3125 C 2.9375 -6.28125 2.9375 -6.25 2.90625 -6.125 L 1.5625 -0.78125 C 1.46875 -0.390625 1.453125 -0.3125 0.65625 -0.3125 C 0.484375 -0.3125 0.390625 -0.3125 0.390625 -0.109375 C 0.390625 0 0.484375 0 0.65625 0 L 5.28125 0 C 5.515625 0 5.515625 0 5.578125 -0.171875 L 6.375 -2.328125 C 6.40625 -2.4375 6.40625 -2.453125 6.40625 -2.46875 C 6.40625 -2.5 6.375 -2.578125 6.296875 -2.578125 C 6.203125 -2.578125 6.1875 -2.515625 6.125 -2.359375 C 5.78125 -1.453125 5.34375 -0.3125 3.625 -0.3125 L 2.6875 -0.3125 C 2.546875 -0.3125 2.515625 -0.3125 2.46875 -0.3125 C 2.359375 -0.328125 2.328125 -0.34375 2.328125 -0.421875 C 2.328125 -0.453125 2.328125 -0.46875 2.375 -0.640625 Z M 3.734375 -6.03125 "/>
</symbol>
<symbol overflow="visible" id="glyph0-8">
<path style="stroke:none;" d="M 3.734375 -6.125 C 3.796875 -6.359375 3.828125 -6.453125 4.015625 -6.484375 C 4.109375 -6.5 4.421875 -6.5 4.625 -6.5 C 5.328125 -6.5 6.4375 -6.5 6.4375 -5.515625 C 6.4375 -5.171875 6.28125 -4.484375 5.890625 -4.09375 C 5.625 -3.84375 5.109375 -3.515625 4.203125 -3.515625 L 3.09375 -3.515625 Z M 5.171875 -3.390625 C 6.1875 -3.609375 7.359375 -4.3125 7.359375 -5.3125 C 7.359375 -6.171875 6.46875 -6.8125 5.15625 -6.8125 L 2.328125 -6.8125 C 2.125 -6.8125 2.03125 -6.8125 2.03125 -6.609375 C 2.03125 -6.5 2.125 -6.5 2.3125 -6.5 C 2.328125 -6.5 2.515625 -6.5 2.6875 -6.484375 C 2.875 -6.453125 2.953125 -6.453125 2.953125 -6.3125 C 2.953125 -6.28125 2.953125 -6.25 2.921875 -6.125 L 1.578125 -0.78125 C 1.484375 -0.390625 1.46875 -0.3125 0.671875 -0.3125 C 0.5 -0.3125 0.40625 -0.3125 0.40625 -0.109375 C 0.40625 0 0.53125 0 0.546875 0 C 0.828125 0 1.53125 -0.03125 1.796875 -0.03125 C 2.078125 -0.03125 2.796875 0 3.078125 0 C 3.15625 0 3.265625 0 3.265625 -0.203125 C 3.265625 -0.3125 3.1875 -0.3125 2.984375 -0.3125 C 2.625 -0.3125 2.34375 -0.3125 2.34375 -0.484375 C 2.34375 -0.546875 2.359375 -0.59375 2.375 -0.65625 L 3.03125 -3.296875 L 4.21875 -3.296875 C 5.125 -3.296875 5.296875 -2.734375 5.296875 -2.390625 C 5.296875 -2.25 5.21875 -1.9375 5.15625 -1.703125 C 5.09375 -1.421875 5 -1.0625 5 -0.859375 C 5 0.21875 6.203125 0.21875 6.328125 0.21875 C 7.171875 0.21875 7.53125 -0.78125 7.53125 -0.921875 C 7.53125 -1.046875 7.421875 -1.046875 7.40625 -1.046875 C 7.3125 -1.046875 7.296875 -0.984375 7.28125 -0.90625 C 7.03125 -0.171875 6.59375 0 6.375 0 C 6.046875 0 5.96875 -0.21875 5.96875 -0.609375 C 5.96875 -0.921875 6.03125 -1.421875 6.078125 -1.75 C 6.09375 -1.890625 6.109375 -2.078125 6.109375 -2.21875 C 6.109375 -2.984375 5.4375 -3.296875 5.171875 -3.390625 Z M 5.171875 -3.390625 "/>
</symbol>
<symbol overflow="visible" id="glyph1-0">
<path style="stroke:none;" d=""/>
</symbol>
<symbol overflow="visible" id="glyph1-1">
<path style="stroke:none;" d="M 4.640625 21.546875 L 2.484375 11.5625 L 1.171875 13.625 C 1.109375 13.703125 1.109375 13.734375 1.109375 13.734375 C 1.109375 13.78125 1.234375 13.890625 1.25 13.890625 L 1.921875 12.828125 L 4.234375 23.53125 C 4.5625 23.53125 4.578125 23.53125 4.640625 23.265625 L 10.125 0.015625 C 10.140625 -0.0625 10.171875 -0.15625 10.171875 -0.203125 C 10.171875 -0.3125 10.09375 -0.40625 9.96875 -0.40625 C 9.8125 -0.40625 9.78125 -0.265625 9.75 -0.125 Z M 4.640625 21.546875 "/>
</symbol>
<symbol overflow="visible" id="glyph1-2">
<path style="stroke:none;" d="M 2.25 17.53125 L 4.515625 17.53125 L 4.515625 17.0625 L 2.71875 17.0625 L 2.71875 0.0625 L 4.515625 0.0625 L 4.515625 -0.40625 L 2.25 -0.40625 Z M 2.25 17.53125 "/>
</symbol>
<symbol overflow="visible" id="glyph1-3">
<path style="stroke:none;" d="M 1.96875 17.0625 L 0.171875 17.0625 L 0.171875 17.53125 L 2.4375 17.53125 L 2.4375 -0.40625 L 0.171875 -0.40625 L 0.171875 0.0625 L 1.96875 0.0625 Z M 1.96875 17.0625 "/>
</symbol>
<symbol overflow="visible" id="glyph2-0">
<path style="stroke:none;" d=""/>
</symbol>
<symbol overflow="visible" id="glyph2-1">
<path style="stroke:none;" d="M 1.640625 -1.40625 C 1.640625 -1.453125 1.8125 -2.078125 1.8125 -2.109375 C 1.828125 -2.171875 2.03125 -2.515625 2.265625 -2.6875 C 2.328125 -2.734375 2.515625 -2.875 2.828125 -2.875 C 2.890625 -2.875 3.0625 -2.875 3.203125 -2.78125 C 2.984375 -2.71875 2.90625 -2.515625 2.90625 -2.390625 C 2.90625 -2.25 3.015625 -2.140625 3.171875 -2.140625 C 3.34375 -2.140625 3.5625 -2.265625 3.5625 -2.5625 C 3.5625 -2.921875 3.1875 -3.078125 2.828125 -3.078125 C 2.46875 -3.078125 2.15625 -2.921875 1.84375 -2.578125 C 1.71875 -3 1.296875 -3.078125 1.125 -3.078125 C 0.875 -3.078125 0.703125 -2.90625 0.578125 -2.71875 C 0.421875 -2.453125 0.328125 -2.046875 0.328125 -2 C 0.328125 -1.921875 0.421875 -1.921875 0.453125 -1.921875 C 0.546875 -1.921875 0.546875 -1.9375 0.59375 -2.125 C 0.703125 -2.546875 0.84375 -2.875 1.109375 -2.875 C 1.296875 -2.875 1.34375 -2.71875 1.34375 -2.53125 C 1.34375 -2.40625 1.28125 -2.140625 1.21875 -1.953125 C 1.171875 -1.765625 1.109375 -1.484375 1.078125 -1.328125 L 0.84375 -0.4375 C 0.828125 -0.34375 0.78125 -0.171875 0.78125 -0.15625 C 0.78125 0 0.90625 0.0625 1.015625 0.0625 C 1.125 0.0625 1.265625 0 1.3125 -0.125 C 1.328125 -0.171875 1.40625 -0.484375 1.453125 -0.65625 Z M 1.640625 -1.40625 "/>
</symbol>
<symbol overflow="visible" id="glyph2-2">
<path style="stroke:none;" d="M 2.1875 -4.625 C 2.1875 -4.640625 2.203125 -4.734375 2.203125 -4.734375 C 2.203125 -4.78125 2.1875 -4.84375 2.09375 -4.84375 C 1.953125 -4.84375 1.375 -4.78125 1.203125 -4.765625 C 1.15625 -4.765625 1.046875 -4.75 1.046875 -4.609375 C 1.046875 -4.515625 1.15625 -4.515625 1.234375 -4.515625 C 1.5625 -4.515625 1.5625 -4.453125 1.5625 -4.40625 C 1.5625 -4.359375 1.546875 -4.3125 1.546875 -4.25 L 0.5625 -0.3125 C 0.515625 -0.1875 0.515625 -0.171875 0.515625 -0.15625 C 0.515625 -0.046875 0.609375 0.0625 0.765625 0.0625 C 0.84375 0.0625 0.96875 0.03125 1.046875 -0.109375 C 1.0625 -0.15625 1.125 -0.40625 1.15625 -0.546875 L 1.328125 -1.171875 C 1.34375 -1.28125 1.421875 -1.546875 1.4375 -1.640625 C 1.5 -1.90625 1.5 -1.921875 1.640625 -2.140625 C 1.875 -2.484375 2.21875 -2.875 2.765625 -2.875 C 3.15625 -2.875 3.171875 -2.5625 3.171875 -2.390625 C 3.171875 -1.96875 2.875 -1.203125 2.765625 -0.90625 C 2.6875 -0.703125 2.65625 -0.640625 2.65625 -0.53125 C 2.65625 -0.15625 2.96875 0.0625 3.3125 0.0625 C 4.015625 0.0625 4.328125 -0.890625 4.328125 -1 C 4.328125 -1.09375 4.234375 -1.09375 4.203125 -1.09375 C 4.109375 -1.09375 4.109375 -1.046875 4.078125 -0.96875 C 3.921875 -0.40625 3.609375 -0.125 3.34375 -0.125 C 3.1875 -0.125 3.15625 -0.21875 3.15625 -0.375 C 3.15625 -0.53125 3.203125 -0.625 3.328125 -0.9375 C 3.40625 -1.15625 3.6875 -1.890625 3.6875 -2.28125 C 3.6875 -2.390625 3.6875 -2.6875 3.4375 -2.890625 C 3.3125 -2.96875 3.109375 -3.078125 2.78125 -3.078125 C 2.28125 -3.078125 1.90625 -2.796875 1.65625 -2.5 Z M 2.1875 -4.625 "/>
</symbol>
<symbol overflow="visible" id="glyph2-3">
<path style="stroke:none;" d="M 3.421875 -4.75 C 3.421875 -4.84375 3.34375 -4.84375 3.3125 -4.84375 C 3.203125 -4.84375 3.203125 -4.796875 3.171875 -4.6875 L 2.78125 -3.09375 C 1.546875 -3.03125 0.484375 -2.140625 0.484375 -1.21875 C 0.484375 -0.421875 1.203125 0.046875 1.984375 0.078125 C 1.921875 0.296875 1.875 0.515625 1.8125 0.734375 C 1.734375 1.0625 1.671875 1.3125 1.671875 1.34375 C 1.671875 1.421875 1.765625 1.421875 1.78125 1.421875 C 1.890625 1.421875 1.890625 1.40625 1.9375 1.25 L 2.21875 0.078125 C 3.421875 0.03125 4.515625 -0.84375 4.515625 -1.796875 C 4.515625 -2.515625 3.875 -3.046875 3.015625 -3.078125 Z M 2.03125 -0.125 C 1.484375 -0.140625 1 -0.4375 1 -1.09375 C 1 -1.796875 1.53125 -2.78125 2.71875 -2.890625 Z M 2.96875 -2.890625 C 3.5 -2.859375 4 -2.578125 4 -1.90625 C 4 -1.15625 3.40625 -0.21875 2.265625 -0.125 Z M 2.96875 -2.890625 "/>
</symbol>
<symbol overflow="visible" id="glyph2-4">
<path style="stroke:none;" d="M 3.984375 -4.625 C 3.984375 -4.640625 4 -4.734375 4 -4.734375 C 4 -4.78125 3.984375 -4.84375 3.890625 -4.84375 C 3.75 -4.84375 3.171875 -4.78125 3 -4.765625 C 2.953125 -4.765625 2.84375 -4.75 2.84375 -4.609375 C 2.84375 -4.515625 2.953125 -4.515625 3.03125 -4.515625 C 3.359375 -4.515625 3.359375 -4.453125 3.359375 -4.40625 C 3.359375 -4.359375 3.359375 -4.3125 3.34375 -4.25 L 2.9375 -2.65625 C 2.796875 -2.890625 2.5625 -3.078125 2.21875 -3.078125 C 1.328125 -3.078125 0.421875 -2.09375 0.421875 -1.09375 C 0.421875 -0.40625 0.875 0.0625 1.484375 0.0625 C 1.859375 0.0625 2.1875 -0.140625 2.46875 -0.421875 C 2.59375 0 3 0.0625 3.1875 0.0625 C 3.4375 0.0625 3.609375 -0.078125 3.734375 -0.296875 C 3.890625 -0.578125 3.984375 -0.96875 3.984375 -1 C 3.984375 -1.09375 3.890625 -1.09375 3.875 -1.09375 C 3.765625 -1.09375 3.765625 -1.0625 3.71875 -0.875 C 3.625 -0.53125 3.5 -0.125 3.203125 -0.125 C 3.03125 -0.125 2.96875 -0.28125 2.96875 -0.46875 C 2.96875 -0.59375 2.984375 -0.65625 3.015625 -0.75 Z M 2.5 -0.875 C 2.453125 -0.671875 2.296875 -0.53125 2.140625 -0.40625 C 2.078125 -0.34375 1.796875 -0.125 1.5 -0.125 C 1.234375 -0.125 0.984375 -0.3125 0.984375 -0.796875 C 0.984375 -1.171875 1.1875 -1.9375 1.359375 -2.21875 C 1.671875 -2.78125 2.03125 -2.875 2.21875 -2.875 C 2.703125 -2.875 2.84375 -2.34375 2.84375 -2.265625 C 2.84375 -2.25 2.828125 -2.1875 2.828125 -2.171875 Z M 2.5 -0.875 "/>
</symbol>
<symbol overflow="visible" id="glyph3-0">
<path style="stroke:none;" d=""/>
</symbol>
<symbol overflow="visible" id="glyph3-1">
<path style="stroke:none;" d="M 3.21875 -1.578125 L 5.359375 -1.578125 C 5.453125 -1.578125 5.609375 -1.578125 5.609375 -1.734375 C 5.609375 -1.921875 5.453125 -1.921875 5.359375 -1.921875 L 3.21875 -1.921875 L 3.21875 -4.0625 C 3.21875 -4.140625 3.21875 -4.3125 3.0625 -4.3125 C 2.890625 -4.3125 2.890625 -4.15625 2.890625 -4.0625 L 2.890625 -1.921875 L 0.75 -1.921875 C 0.65625 -1.921875 0.484375 -1.921875 0.484375 -1.75 C 0.484375 -1.578125 0.640625 -1.578125 0.75 -1.578125 L 2.890625 -1.578125 L 2.890625 0.5625 C 2.890625 0.65625 2.890625 0.828125 3.046875 0.828125 C 3.21875 0.828125 3.21875 0.65625 3.21875 0.5625 Z M 3.21875 -1.578125 "/>
</symbol>
<symbol overflow="visible" id="glyph3-2">
<path style="stroke:none;" d="M 3.515625 -1.265625 L 3.28125 -1.265625 C 3.265625 -1.109375 3.1875 -0.703125 3.09375 -0.640625 C 3.046875 -0.59375 2.515625 -0.59375 2.40625 -0.59375 L 1.125 -0.59375 C 1.859375 -1.234375 2.109375 -1.4375 2.515625 -1.765625 C 3.03125 -2.171875 3.515625 -2.609375 3.515625 -3.265625 C 3.515625 -4.109375 2.78125 -4.625 1.890625 -4.625 C 1.03125 -4.625 0.4375 -4.015625 0.4375 -3.375 C 0.4375 -3.03125 0.734375 -2.984375 0.8125 -2.984375 C 0.96875 -2.984375 1.171875 -3.109375 1.171875 -3.359375 C 1.171875 -3.484375 1.125 -3.734375 0.765625 -3.734375 C 0.984375 -4.21875 1.453125 -4.375 1.78125 -4.375 C 2.484375 -4.375 2.84375 -3.828125 2.84375 -3.265625 C 2.84375 -2.65625 2.40625 -2.1875 2.1875 -1.9375 L 0.515625 -0.265625 C 0.4375 -0.203125 0.4375 -0.1875 0.4375 0 L 3.3125 0 Z M 3.515625 -1.265625 "/>
</symbol>
<symbol overflow="visible" id="glyph4-0">
<path style="stroke:none;" d=""/>
</symbol>
<symbol overflow="visible" id="glyph4-1">
<path style="stroke:none;" d="M 6.5625 -2.296875 C 6.734375 -2.296875 6.921875 -2.296875 6.921875 -2.5 C 6.921875 -2.6875 6.734375 -2.6875 6.5625 -2.6875 L 1.171875 -2.6875 C 1 -2.6875 0.828125 -2.6875 0.828125 -2.5 C 0.828125 -2.296875 1 -2.296875 1.171875 -2.296875 Z M 6.5625 -2.296875 "/>
</symbol>
<symbol overflow="visible" id="glyph5-0">
<path style="stroke:none;" d=""/>
</symbol>
<symbol overflow="visible" id="glyph5-1">
<path style="stroke:none;" d="M 2.078125 -1.9375 C 2.296875 -1.890625 3.109375 -1.734375 3.109375 -1.015625 C 3.109375 -0.515625 2.765625 -0.109375 1.984375 -0.109375 C 1.140625 -0.109375 0.78125 -0.671875 0.59375 -1.53125 C 0.5625 -1.65625 0.5625 -1.6875 0.453125 -1.6875 C 0.328125 -1.6875 0.328125 -1.625 0.328125 -1.453125 L 0.328125 -0.125 C 0.328125 0.046875 0.328125 0.109375 0.4375 0.109375 C 0.484375 0.109375 0.5 0.09375 0.6875 -0.09375 C 0.703125 -0.109375 0.703125 -0.125 0.890625 -0.3125 C 1.328125 0.09375 1.78125 0.109375 1.984375 0.109375 C 3.125 0.109375 3.59375 -0.5625 3.59375 -1.28125 C 3.59375 -1.796875 3.296875 -2.109375 3.171875 -2.21875 C 2.84375 -2.546875 2.453125 -2.625 2.03125 -2.703125 C 1.46875 -2.8125 0.8125 -2.9375 0.8125 -3.515625 C 0.8125 -3.875 1.0625 -4.28125 1.921875 -4.28125 C 3.015625 -4.28125 3.078125 -3.375 3.09375 -3.078125 C 3.09375 -2.984375 3.1875 -2.984375 3.203125 -2.984375 C 3.34375 -2.984375 3.34375 -3.03125 3.34375 -3.21875 L 3.34375 -4.234375 C 3.34375 -4.390625 3.34375 -4.46875 3.234375 -4.46875 C 3.1875 -4.46875 3.15625 -4.46875 3.03125 -4.34375 C 3 -4.3125 2.90625 -4.21875 2.859375 -4.1875 C 2.484375 -4.46875 2.078125 -4.46875 1.921875 -4.46875 C 0.703125 -4.46875 0.328125 -3.796875 0.328125 -3.234375 C 0.328125 -2.890625 0.484375 -2.609375 0.75 -2.390625 C 1.078125 -2.140625 1.359375 -2.078125 2.078125 -1.9375 Z M 2.078125 -1.9375 "/>
</symbol>
<symbol overflow="visible" id="glyph5-2">
<path style="stroke:none;" d="M 1.765625 -4.40625 L 0.375 -4.296875 L 0.375 -3.984375 C 1.015625 -3.984375 1.109375 -3.921875 1.109375 -3.4375 L 1.109375 -0.75 C 1.109375 -0.3125 1 -0.3125 0.328125 -0.3125 L 0.328125 0 C 0.640625 -0.015625 1.1875 -0.03125 1.421875 -0.03125 C 1.78125 -0.03125 2.125 -0.015625 2.46875 0 L 2.46875 -0.3125 C 1.796875 -0.3125 1.765625 -0.359375 1.765625 -0.75 Z M 1.796875 -6.140625 C 1.796875 -6.453125 1.5625 -6.671875 1.28125 -6.671875 C 0.96875 -6.671875 0.75 -6.40625 0.75 -6.140625 C 0.75 -5.875 0.96875 -5.609375 1.28125 -5.609375 C 1.5625 -5.609375 1.796875 -5.828125 1.796875 -6.140625 Z M 1.796875 -6.140625 "/>
</symbol>
<symbol overflow="visible" id="glyph5-3">
<path style="stroke:none;" d="M 1.09375 -3.421875 L 1.09375 -0.75 C 1.09375 -0.3125 0.984375 -0.3125 0.3125 -0.3125 L 0.3125 0 C 0.671875 -0.015625 1.171875 -0.03125 1.453125 -0.03125 C 1.703125 -0.03125 2.21875 -0.015625 2.5625 0 L 2.5625 -0.3125 C 1.890625 -0.3125 1.78125 -0.3125 1.78125 -0.75 L 1.78125 -2.59375 C 1.78125 -3.625 2.5 -4.1875 3.125 -4.1875 C 3.765625 -4.1875 3.875 -3.65625 3.875 -3.078125 L 3.875 -0.75 C 3.875 -0.3125 3.765625 -0.3125 3.09375 -0.3125 L 3.09375 0 C 3.4375 -0.015625 3.953125 -0.03125 4.21875 -0.03125 C 4.46875 -0.03125 5 -0.015625 5.328125 0 L 5.328125 -0.3125 C 4.8125 -0.3125 4.5625 -0.3125 4.5625 -0.609375 L 4.5625 -2.515625 C 4.5625 -3.375 4.5625 -3.671875 4.25 -4.03125 C 4.109375 -4.203125 3.78125 -4.40625 3.203125 -4.40625 C 2.46875 -4.40625 2 -3.984375 1.71875 -3.359375 L 1.71875 -4.40625 L 0.3125 -4.296875 L 0.3125 -3.984375 C 1.015625 -3.984375 1.09375 -3.921875 1.09375 -3.421875 Z M 1.09375 -3.421875 "/>
</symbol>
<symbol overflow="visible" id="glyph5-4">
<path style="stroke:none;" d="M 1.265625 -0.765625 L 2.328125 -1.796875 C 3.875 -3.171875 4.46875 -3.703125 4.46875 -4.703125 C 4.46875 -5.84375 3.578125 -6.640625 2.359375 -6.640625 C 1.234375 -6.640625 0.5 -5.71875 0.5 -4.828125 C 0.5 -4.28125 1 -4.28125 1.03125 -4.28125 C 1.203125 -4.28125 1.546875 -4.390625 1.546875 -4.8125 C 1.546875 -5.0625 1.359375 -5.328125 1.015625 -5.328125 C 0.9375 -5.328125 0.921875 -5.328125 0.890625 -5.3125 C 1.109375 -5.96875 1.65625 -6.328125 2.234375 -6.328125 C 3.140625 -6.328125 3.5625 -5.515625 3.5625 -4.703125 C 3.5625 -3.90625 3.078125 -3.125 2.515625 -2.5 L 0.609375 -0.375 C 0.5 -0.265625 0.5 -0.234375 0.5 0 L 4.203125 0 L 4.46875 -1.734375 L 4.234375 -1.734375 C 4.171875 -1.4375 4.109375 -1 4 -0.84375 C 3.9375 -0.765625 3.28125 -0.765625 3.0625 -0.765625 Z M 1.265625 -0.765625 "/>
</symbol>
<symbol overflow="visible" id="glyph6-0">
<path style="stroke:none;" d=""/>
</symbol>
<symbol overflow="visible" id="glyph6-1">
<path style="stroke:none;" d="M 2.9375 -0.96875 L 2.71875 -0.96875 C 2.71875 -0.875 2.65625 -0.5625 2.578125 -0.515625 C 2.546875 -0.484375 2.125 -0.484375 2.046875 -0.484375 L 1.078125 -0.484375 C 1.40625 -0.71875 1.765625 -1 2.0625 -1.203125 C 2.515625 -1.515625 2.9375 -1.796875 2.9375 -2.328125 C 2.9375 -2.96875 2.328125 -3.3125 1.625 -3.3125 C 0.953125 -3.3125 0.453125 -2.9375 0.453125 -2.4375 C 0.453125 -2.1875 0.671875 -2.140625 0.75 -2.140625 C 0.875 -2.140625 1.03125 -2.234375 1.03125 -2.4375 C 1.03125 -2.609375 0.90625 -2.71875 0.75 -2.71875 C 0.890625 -2.953125 1.1875 -3.09375 1.515625 -3.09375 C 2 -3.09375 2.40625 -2.8125 2.40625 -2.328125 C 2.40625 -1.90625 2.109375 -1.578125 1.734375 -1.265625 L 0.515625 -0.234375 C 0.46875 -0.1875 0.453125 -0.1875 0.453125 -0.15625 L 0.453125 0 L 2.765625 0 Z M 2.9375 -0.96875 "/>
</symbol>
<symbol overflow="visible" id="glyph7-0">
<path style="stroke:none;" d=""/>
</symbol>
<symbol overflow="visible" id="glyph7-1">
<path style="stroke:none;" d="M 8.359375 -1.703125 C 8.359375 -1.703125 8.4375 -1.78125 8.34375 -1.875 C 8.21875 -1.96875 7.453125 -2.53125 7.3125 -2.625 C 7.25 -2.671875 7.171875 -2.671875 7.078125 -2.578125 C 7 -2.484375 7.078125 -2.421875 7.171875 -2.328125 C 7.546875 -2.015625 7.515625 -1.953125 7.4375 -1.875 L 7.28125 -1.734375 L 5.265625 -0.375 C 5.375 -0.78125 5.359375 -1.140625 5.015625 -1.453125 C 4.15625 -2.21875 2.234375 -1.9375 1.28125 -0.84375 C 0.65625 -0.140625 0.640625 0.703125 1.203125 1.21875 C 1.359375 1.34375 1.765625 1.65625 2.6875 1.515625 C 2.453125 1.890625 2.515625 2.359375 2.859375 2.671875 C 3.125 2.90625 3.453125 2.875 3.796875 2.765625 C 4.15625 2.59375 4.65625 2.234375 4.65625 2.21875 C 4.734375 2.140625 4.671875 2.078125 4.640625 2.0625 C 4.578125 2 4.53125 2.015625 4.421875 2.109375 C 3.859375 2.46875 3.34375 2.8125 3.046875 2.53125 C 2.828125 2.34375 2.984375 2.140625 3.109375 2 C 3.265625 1.8125 3.328125 1.765625 3.46875 1.671875 Z M 3.09375 1.140625 C 2.921875 1.25 2.921875 1.265625 2.6875 1.296875 C 2 1.40625 1.59375 1.265625 1.390625 1.078125 C 1.015625 0.75 1.265625 0.25 1.515625 -0.046875 C 1.84375 -0.421875 2.890625 -1.140625 3.375 -1.328125 C 3.984375 -1.5625 4.5625 -1.546875 4.875 -1.28125 C 5.359375 -0.859375 4.921875 -0.15625 4.875 -0.109375 C 4.84375 -0.0625 4.796875 -0.03125 4.75 0 Z M 3.09375 1.140625 "/>
</symbol>
<symbol overflow="visible" id="glyph7-2">
<path style="stroke:none;" d="M 1.046875 0.140625 C 0.921875 0.234375 0.71875 0.359375 0.6875 0.40625 C 0.5625 0.53125 0.609375 0.6875 0.734375 0.796875 C 0.828125 0.875 1.015625 0.921875 1.203125 0.84375 C 1.234375 0.8125 2.375 0.015625 2.53125 -0.09375 C 2.8125 -0.296875 3.40625 -0.6875 3.625 -0.859375 C 3.75 -0.921875 4.265625 -1.09375 4.578125 -1.09375 C 4.6875 -1.09375 5.078125 -1.09375 5.40625 -0.8125 C 5.59375 -0.640625 5.625 -0.453125 5.640625 -0.4375 C 5.390625 -0.609375 5.0625 -0.5625 4.890625 -0.375 C 4.78125 -0.25 4.734375 -0.046875 4.9375 0.140625 C 5.140625 0.3125 5.5 0.328125 5.734375 0.046875 C 5.96875 -0.203125 5.9375 -0.625 5.5625 -0.96875 C 5.078125 -1.390625 4.421875 -1.328125 4.09375 -1.25 C 4.3125 -1.640625 4.265625 -2.109375 3.921875 -2.421875 C 3.578125 -2.71875 3.171875 -2.5625 2.984375 -2.484375 C 2.625 -2.34375 2.140625 -1.96875 2.125 -1.953125 C 2.046875 -1.875 2.125 -1.8125 2.125 -1.8125 C 2.21875 -1.734375 2.234375 -1.734375 2.421875 -1.875 C 3.015625 -2.28125 3.484375 -2.515625 3.75 -2.265625 C 3.859375 -2.171875 3.921875 -2.015625 3.671875 -1.734375 C 3.53125 -1.578125 3.4375 -1.5 3 -1.203125 Z M 1.046875 0.140625 "/>
</symbol>
<symbol overflow="visible" id="glyph7-3">
<path style="stroke:none;" d="M 6.640625 -3.21875 C 6.640625 -3.21875 6.71875 -3.296875 6.625 -3.375 C 6.453125 -3.53125 5.859375 -3.953125 5.640625 -4.109375 C 5.578125 -4.15625 5.5 -4.21875 5.375 -4.09375 C 5.296875 -4 5.359375 -3.9375 5.46875 -3.84375 C 5.828125 -3.515625 5.8125 -3.46875 5.734375 -3.390625 L 5.5625 -3.25 L 0.703125 0.09375 C 0.578125 0.171875 0.5625 0.1875 0.515625 0.234375 C 0.359375 0.40625 0.484375 0.578125 0.546875 0.640625 C 0.671875 0.734375 0.875 0.75 1.015625 0.6875 L 1.640625 0.25 L 2.390625 -0.28125 C 2.59375 -0.40625 2.78125 -0.546875 2.96875 -0.671875 C 3.015625 -0.703125 3.3125 -0.890625 3.359375 -0.9375 C 3.4375 -1 4.03125 -1.1875 4.484375 -1.171875 C 4.734375 -1.15625 5.078125 -1.09375 5.40625 -0.8125 C 5.734375 -0.53125 5.59375 -0.1875 5.359375 0.078125 C 5 0.46875 4 1.046875 3.421875 1.34375 C 3.21875 1.46875 3.078125 1.515625 2.953125 1.65625 C 2.640625 2.015625 2.671875 2.5 3.03125 2.8125 C 3.734375 3.4375 4.96875 2.59375 5.015625 2.53125 C 5.09375 2.453125 5.03125 2.40625 5.015625 2.390625 C 4.921875 2.3125 4.890625 2.328125 4.765625 2.421875 C 4.296875 2.71875 3.609375 3.03125 3.1875 2.671875 C 3.0625 2.5625 3.078125 2.4375 3.234375 2.265625 C 3.390625 2.078125 3.609375 1.953125 3.8125 1.84375 C 4.234375 1.625 5.359375 1.03125 5.75 0.609375 C 6.171875 0.125 6.15625 -0.4375 5.59375 -0.9375 C 5.125 -1.359375 4.546875 -1.4375 3.96875 -1.359375 Z M 6.640625 -3.21875 "/>
</symbol>
<symbol overflow="visible" id="glyph8-0">
<path style="stroke:none;" d=""/>
</symbol>
<symbol overflow="visible" id="glyph8-1">
<path style="stroke:none;" d="M 7.28125 2.078125 C 7.40625 2.171875 7.546875 2.296875 7.671875 2.15625 C 7.8125 2.015625 7.671875 1.890625 7.5625 1.796875 L 3.09375 -2.140625 C 2.984375 -2.234375 2.84375 -2.359375 2.703125 -2.21875 C 2.578125 -2.078125 2.71875 -1.953125 2.828125 -1.859375 Z M 6.015625 3.53125 C 6.125 3.625 6.265625 3.75 6.40625 3.609375 C 6.53125 3.46875 6.390625 3.34375 6.265625 3.25 L 1.8125 -0.6875 C 1.703125 -0.78125 1.5625 -0.90625 1.4375 -0.765625 C 1.296875 -0.625 1.4375 -0.5 1.546875 -0.40625 Z M 6.015625 3.53125 "/>
</symbol>
<symbol overflow="visible" id="glyph8-2">
<path style="stroke:none;" d="M 1.453125 0.265625 L 2.9375 0.203125 C 5 0.1875 5.796875 0.171875 6.453125 -0.578125 C 7.203125 -1.421875 7.078125 -2.625 6.15625 -3.421875 C 5.3125 -4.171875 4.15625 -3.953125 3.5625 -3.296875 C 3.203125 -2.875 3.578125 -2.546875 3.59375 -2.515625 C 3.734375 -2.40625 4.0625 -2.28125 4.34375 -2.59375 C 4.5 -2.78125 4.546875 -3.09375 4.296875 -3.328125 C 4.234375 -3.375 4.21875 -3.390625 4.1875 -3.390625 C 4.78125 -3.734375 5.421875 -3.65625 5.859375 -3.265625 C 6.546875 -2.671875 6.3125 -1.78125 5.78125 -1.171875 C 5.25 -0.5625 4.375 -0.3125 3.546875 -0.21875 L 0.703125 0.125 C 0.546875 0.125 0.53125 0.15625 0.375 0.328125 L 3.15625 2.78125 L 4.484375 1.65625 L 4.3125 1.5 C 4.078125 1.6875 3.734375 1.96875 3.5625 2.015625 C 3.453125 2.03125 2.953125 1.59375 2.796875 1.453125 Z M 1.453125 0.265625 "/>
</symbol>
<symbol overflow="visible" id="glyph8-3">
<path style="stroke:none;" d="M 4.578125 0.984375 L 6.65625 2.8125 C 6.765625 2.90625 6.90625 3.03125 7.046875 2.875 C 7.171875 2.734375 7.03125 2.609375 6.921875 2.515625 L 4.84375 0.6875 L 6.6875 -1.40625 C 6.78125 -1.515625 6.90625 -1.65625 6.75 -1.796875 C 6.59375 -1.9375 6.46875 -1.796875 6.375 -1.6875 L 4.53125 0.40625 L 2.453125 -1.421875 C 2.34375 -1.515625 2.203125 -1.640625 2.078125 -1.5 C 1.9375 -1.34375 2.078125 -1.21875 2.1875 -1.125 L 4.265625 0.703125 L 2.421875 2.796875 C 2.328125 2.90625 2.203125 3.046875 2.359375 3.1875 C 2.515625 3.328125 2.640625 3.1875 2.734375 3.078125 Z M 4.578125 0.984375 "/>
</symbol>
<symbol overflow="visible" id="glyph9-0">
<path style="stroke:none;" d=""/>
</symbol>
<symbol overflow="visible" id="glyph9-1">
<path style="stroke:none;" d="M -2.71875 8.953125 L -1.46875 4.890625 C -1.4375 4.71875 -1.46875 4.6875 -1.5 4.65625 C -1.5 4.65625 -1.546875 4.625 -1.671875 4.609375 L -2.859375 4.515625 C -3.015625 4.53125 -3.03125 4.53125 -3.046875 4.5625 C -3.09375 4.609375 -3.109375 4.65625 -3.046875 4.703125 C -3 4.75 -2.78125 4.75 -2.65625 4.78125 C -2.59375 4.765625 -2.390625 4.78125 -2.265625 4.796875 L -3.625 9.328125 C -3.6875 9.5 -3.65625 9.53125 -3.59375 9.59375 C -3.46875 9.6875 -3.421875 9.6875 -3.28125 9.609375 L 6.328125 5.578125 C 6.46875 5.515625 6.484375 5.5 6.515625 5.46875 C 6.578125 5.40625 6.578125 5.28125 6.484375 5.1875 C 6.421875 5.140625 6.34375 5.140625 6.1875 5.203125 Z M -2.71875 8.953125 "/>
</symbol>
<symbol overflow="visible" id="glyph10-0">
<path style="stroke:none;" d=""/>
</symbol>
<symbol overflow="visible" id="glyph10-1">
<path style="stroke:none;" d="M 3.484375 1.375 L 3.296875 1.21875 C 3.1875 1.328125 2.859375 1.578125 2.734375 1.5625 C 2.671875 1.578125 2.28125 1.21875 2.1875 1.15625 L 1.234375 0.3125 C 2.203125 0.3125 2.53125 0.3125 3.0625 0.328125 C 3.703125 0.375 4.359375 0.375 4.796875 -0.125 C 5.359375 -0.75 5.140625 -1.625 4.484375 -2.21875 C 3.828125 -2.78125 2.984375 -2.71875 2.5625 -2.234375 C 2.328125 -1.96875 2.515625 -1.75 2.578125 -1.703125 C 2.6875 -1.59375 2.9375 -1.546875 3.09375 -1.734375 C 3.1875 -1.828125 3.3125 -2.046875 3.046875 -2.296875 C 3.53125 -2.5 3.984375 -2.3125 4.21875 -2.109375 C 4.75 -1.640625 4.65625 -1 4.28125 -0.578125 C 3.875 -0.109375 3.25 -0.046875 2.921875 0 L 0.5625 0.140625 C 0.46875 0.140625 0.453125 0.15625 0.328125 0.296875 L 2.484375 2.1875 Z M 3.484375 1.375 "/>
</symbol>
<symbol overflow="visible" id="glyph11-0">
<path style="stroke:none;" d=""/>
</symbol>
<symbol overflow="visible" id="glyph11-1">
<path style="stroke:none;" d="M 0.125 -1.046875 C 0.234375 -0.9375 0.359375 -0.734375 0.390625 -0.703125 C 0.53125 -0.578125 0.6875 -0.609375 0.796875 -0.734375 C 0.875 -0.828125 0.9375 -1.015625 0.84375 -1.203125 C 0.8125 -1.25 0.015625 -2.375 -0.09375 -2.546875 C -0.296875 -2.8125 -0.6875 -3.40625 -0.859375 -3.640625 C -0.921875 -3.75 -1.09375 -4.265625 -1.09375 -4.59375 C -1.09375 -4.6875 -1.09375 -5.09375 -0.8125 -5.40625 C -0.640625 -5.609375 -0.453125 -5.625 -0.4375 -5.640625 C -0.609375 -5.390625 -0.578125 -5.0625 -0.375 -4.890625 C -0.25 -4.78125 -0.046875 -4.75 0.140625 -4.9375 C 0.3125 -5.140625 0.3125 -5.515625 0.046875 -5.75 C -0.203125 -5.984375 -0.640625 -5.953125 -0.984375 -5.5625 C -1.40625 -5.078125 -1.328125 -4.421875 -1.25 -4.09375 C -1.65625 -4.328125 -2.125 -4.265625 -2.4375 -3.921875 C -2.734375 -3.578125 -2.5625 -3.171875 -2.5 -3 C -2.34375 -2.625 -1.984375 -2.140625 -1.953125 -2.125 C -1.875 -2.046875 -1.8125 -2.125 -1.8125 -2.140625 C -1.734375 -2.21875 -1.75 -2.234375 -1.875 -2.421875 C -2.28125 -3.015625 -2.515625 -3.484375 -2.265625 -3.75 C -2.171875 -3.875 -2.015625 -3.921875 -1.734375 -3.671875 C -1.578125 -3.53125 -1.515625 -3.4375 -1.203125 -3 Z M 0.125 -1.046875 "/>
</symbol>
<symbol overflow="visible" id="glyph12-0">
<path style="stroke:none;" d=""/>
</symbol>
<symbol overflow="visible" id="glyph12-1">
<path style="stroke:none;" d="M 2.03125 -0.765625 C 2.046875 -0.796875 2.40625 -1.328125 2.421875 -1.359375 C 2.46875 -1.421875 2.765625 -1.671875 3.046875 -1.75 C 3.125 -1.765625 3.34375 -1.84375 3.640625 -1.734375 C 3.703125 -1.71875 3.859375 -1.65625 3.96875 -1.515625 C 3.734375 -1.546875 3.59375 -1.359375 3.546875 -1.25 C 3.5 -1.109375 3.5625 -0.984375 3.71875 -0.9375 C 3.875 -0.875 4.125 -0.90625 4.21875 -1.1875 C 4.34375 -1.53125 4.046875 -1.796875 3.703125 -1.921875 C 3.359375 -2.046875 3.03125 -2.015625 2.609375 -1.796875 C 2.640625 -2.21875 2.265625 -2.453125 2.109375 -2.5 C 1.875 -2.59375 1.65625 -2.5 1.484375 -2.359375 C 1.234375 -2.171875 1.015625 -1.8125 1 -1.765625 C 0.96875 -1.703125 1.046875 -1.671875 1.078125 -1.65625 C 1.171875 -1.625 1.171875 -1.640625 1.296875 -1.796875 C 1.53125 -2.15625 1.78125 -2.421875 2.03125 -2.328125 C 2.203125 -2.265625 2.203125 -2.109375 2.125 -1.921875 C 2.09375 -1.8125 1.9375 -1.578125 1.8125 -1.40625 C 1.703125 -1.25 1.546875 -1.015625 1.46875 -0.875 L 0.953125 -0.125 C 0.90625 -0.046875 0.796875 0.109375 0.78125 0.125 C 0.734375 0.265625 0.84375 0.375 0.9375 0.40625 C 1.046875 0.453125 1.1875 0.4375 1.28125 0.328125 C 1.3125 0.296875 1.5 0.03125 1.578125 -0.109375 Z M 2.03125 -0.765625 "/>
</symbol>
<symbol overflow="visible" id="glyph12-2">
<path style="stroke:none;" d="M 5.328125 -2.984375 C 5.34375 -3 5.390625 -3.078125 5.390625 -3.078125 C 5.40625 -3.125 5.40625 -3.1875 5.3125 -3.21875 C 5.1875 -3.265625 4.625 -3.421875 4.4375 -3.453125 C 4.40625 -3.46875 4.296875 -3.5 4.25 -3.359375 C 4.21875 -3.28125 4.328125 -3.234375 4.390625 -3.21875 C 4.703125 -3.09375 4.671875 -3.03125 4.65625 -2.984375 C 4.640625 -2.9375 4.625 -2.890625 4.59375 -2.859375 L 3.671875 -1.5 C 3.609375 -1.765625 3.453125 -2.015625 3.125 -2.125 C 2.296875 -2.4375 1.109375 -1.828125 0.765625 -0.890625 C 0.53125 -0.234375 0.8125 0.359375 1.375 0.5625 C 1.734375 0.703125 2.109375 0.625 2.453125 0.453125 C 2.4375 0.890625 2.796875 1.09375 2.984375 1.15625 C 3.21875 1.234375 3.421875 1.15625 3.609375 1 C 3.859375 0.78125 4.078125 0.453125 4.09375 0.421875 C 4.125 0.328125 4.03125 0.296875 4.015625 0.296875 C 3.90625 0.25 3.890625 0.28125 3.796875 0.4375 C 3.59375 0.734375 3.328125 1.078125 3.0625 0.96875 C 2.890625 0.90625 2.890625 0.75 2.953125 0.578125 C 3 0.453125 3.015625 0.40625 3.078125 0.328125 Z M 2.640625 0.03125 C 2.546875 0.21875 2.34375 0.28125 2.15625 0.359375 C 2.078125 0.375 1.734375 0.484375 1.453125 0.390625 C 1.203125 0.296875 1.03125 0.046875 1.1875 -0.40625 C 1.328125 -0.75 1.765625 -1.421875 2.046875 -1.609375 C 2.53125 -2.03125 2.890625 -2.015625 3.0625 -1.9375 C 3.53125 -1.78125 3.46875 -1.234375 3.453125 -1.15625 C 3.4375 -1.140625 3.40625 -1.09375 3.40625 -1.078125 Z M 2.640625 0.03125 "/>
</symbol>
<symbol overflow="visible" id="glyph12-3">
<path style="stroke:none;" d="M 3.640625 -3.59375 C 3.65625 -3.609375 3.6875 -3.703125 3.6875 -3.703125 C 3.703125 -3.75 3.71875 -3.796875 3.625 -3.828125 C 3.484375 -3.875 2.9375 -4.03125 2.75 -4.078125 C 2.71875 -4.09375 2.609375 -4.109375 2.5625 -3.96875 C 2.53125 -3.890625 2.640625 -3.859375 2.703125 -3.828125 C 3.015625 -3.71875 2.984375 -3.65625 2.96875 -3.609375 C 2.953125 -3.5625 2.921875 -3.515625 2.90625 -3.46875 L 0.640625 -0.109375 C 0.546875 0 0.546875 0.015625 0.53125 0.03125 C 0.5 0.125 0.5625 0.265625 0.703125 0.328125 C 0.78125 0.34375 0.890625 0.359375 1.015625 0.25 C 1.046875 0.21875 1.203125 0.015625 1.28125 -0.125 L 1.65625 -0.640625 C 1.703125 -0.75 1.875 -0.96875 1.90625 -1.0625 C 2.0625 -1.28125 2.0625 -1.296875 2.28125 -1.453125 C 2.609375 -1.6875 3.0625 -1.9375 3.578125 -1.75 C 3.953125 -1.625 3.859375 -1.328125 3.796875 -1.171875 C 3.65625 -0.765625 3.109375 -0.140625 2.90625 0.09375 C 2.765625 0.265625 2.71875 0.296875 2.6875 0.40625 C 2.546875 0.765625 2.78125 1.078125 3.09375 1.203125 C 3.75 1.4375 4.359375 0.640625 4.40625 0.546875 C 4.4375 0.453125 4.359375 0.421875 4.328125 0.40625 C 4.234375 0.375 4.21875 0.421875 4.15625 0.484375 C 3.828125 0.96875 3.4375 1.109375 3.1875 1.015625 C 3.046875 0.96875 3.046875 0.875 3.09375 0.71875 C 3.15625 0.578125 3.234375 0.5 3.453125 0.265625 C 3.59375 0.078125 4.109375 -0.515625 4.25 -0.875 C 4.28125 -0.984375 4.390625 -1.265625 4.21875 -1.546875 C 4.125 -1.65625 3.96875 -1.828125 3.65625 -1.9375 C 3.1875 -2.109375 2.75 -1.96875 2.421875 -1.78125 Z M 3.640625 -3.59375 "/>
</symbol>
<symbol overflow="visible" id="glyph13-0">
<path style="stroke:none;" d=""/>
</symbol>
<symbol overflow="visible" id="glyph13-1">
<path style="stroke:none;" d="M 3.578125 -0.390625 L 5.578125 0.34375 C 5.671875 0.375 5.8125 0.4375 5.859375 0.296875 C 5.921875 0.109375 5.78125 0.046875 5.6875 0.015625 L 3.6875 -0.71875 L 4.421875 -2.71875 C 4.453125 -2.796875 4.5 -2.953125 4.34375 -3 C 4.1875 -3.0625 4.140625 -2.921875 4.109375 -2.828125 L 3.375 -0.828125 L 1.359375 -1.5625 C 1.265625 -1.59375 1.109375 -1.640625 1.046875 -1.46875 C 1 -1.3125 1.15625 -1.265625 1.25 -1.234375 L 3.265625 -0.5 L 2.53125 1.515625 C 2.5 1.59375 2.4375 1.765625 2.578125 1.828125 C 2.75 1.875 2.8125 1.703125 2.84375 1.625 Z M 3.578125 -0.390625 "/>
</symbol>
</g>
<clipPath id="clip1">
  <path d="M 120 290 L 170 290 L 170 430.574219 L 120 430.574219 Z M 120 290 "/>
</clipPath>
</defs>
<g id="surface1">
<g style="fill:rgb(0%,0%,0%);fill-opacity:1;">
  <use xlink:href="#glyph0-1" x="28.741" y="253.786"/>
</g>
<g style="fill:rgb(0%,0%,0%);fill-opacity:1;">
  <use xlink:href="#glyph0-2" x="36.156" y="20.091"/>
</g>
<g style="fill:rgb(0%,0%,0%);fill-opacity:1;">
  <use xlink:href="#glyph0-3" x="148.693" y="119.296"/>
</g>
<path style="fill:none;stroke-width:0.3985;stroke-linecap:butt;stroke-linejoin:miter;stroke:rgb(0%,0%,100%);stroke-opacity:1;stroke-miterlimit:10;" d="M 0.456781 99.213312 L 105.24975 99.213312 " transform="matrix(1,0,0,-1,40.094,363.768)"/>
<path style="fill:none;stroke-width:0.31879;stroke-linecap:round;stroke-linejoin:round;stroke:rgb(0%,0%,100%);stroke-opacity:1;stroke-miterlimit:10;" d="M -1.193824 1.594278 C -1.096167 0.996621 0.00148875 0.0981838 0.298364 0.0005275 C 0.00148875 -0.101035 -1.096167 -0.995566 -1.193824 -1.593222 " transform="matrix(-1,0,0,1,40.55227,264.55416)"/>
<path style="fill:none;stroke-width:0.31879;stroke-linecap:round;stroke-linejoin:round;stroke:rgb(0%,0%,100%);stroke-opacity:1;stroke-miterlimit:10;" d="M -1.194373 1.593222 C -1.096716 0.995566 0.00094 0.101035 0.297815 -0.0005275 C 0.00094 -0.0981838 -1.096716 -0.996621 -1.194373 -1.594278 " transform="matrix(1,0,0,-1,145.34281,264.55416)"/>
<g style="fill:rgb(0%,0%,100%);fill-opacity:1;">
  <use xlink:href="#glyph0-4" x="49.924" y="284.383"/>
</g>
<g style="fill:rgb(0%,0%,100%);fill-opacity:1;">
  <use xlink:href="#glyph1-1" x="57.323" y="268.872"/>
</g>
<path style="fill:none;stroke-width:0.398;stroke-linecap:butt;stroke-linejoin:miter;stroke:rgb(0%,0%,100%);stroke-opacity:1;stroke-miterlimit:10;" d="M -0.00084375 0.001125 L 68.68275 0.001125 " transform="matrix(1,0,0,-1,67.286,268.673)"/>
<g style="fill:rgb(0%,0%,100%);fill-opacity:1;">
  <use xlink:href="#glyph1-2" x="67.286" y="273.325"/>
</g>
<g style="fill:rgb(0%,0%,100%);fill-opacity:1;">
  <use xlink:href="#glyph2-1" x="78.576" y="280.461"/>
</g>
<path style="fill:none;stroke-width:0.398;stroke-linecap:butt;stroke-linejoin:miter;stroke:rgb(0%,0%,100%);stroke-opacity:1;stroke-miterlimit:10;" d="M 0.0015 -0.00153125 L 14.692906 -0.00153125 " transform="matrix(1,0,0,-1,73.186,281.893)"/>
<g style="fill:rgb(0%,0%,100%);fill-opacity:1;">
  <use xlink:href="#glyph2-1" x="73.186" y="287.819"/>
</g>
<g style="fill:rgb(0%,0%,100%);fill-opacity:1;">
  <use xlink:href="#glyph3-1" x="77.1" y="287.819"/>
</g>
<g style="fill:rgb(0%,0%,100%);fill-opacity:1;">
  <use xlink:href="#glyph2-2" x="83.216" y="287.819"/>
</g>
<g style="fill:rgb(0%,0%,100%);fill-opacity:1;">
  <use xlink:href="#glyph1-3" x="89.075" y="273.325"/>
</g>
<g style="fill:rgb(0%,0%,100%);fill-opacity:1;">
  <use xlink:href="#glyph3-2" x="93.78" y="275.389"/>
</g>
<g style="fill:rgb(0%,0%,100%);fill-opacity:1;">
  <use xlink:href="#glyph4-1" x="100.463" y="284.383"/>
</g>
<g style="fill:rgb(0%,0%,100%);fill-opacity:1;">
  <use xlink:href="#glyph5-1" x="110.426" y="284.383"/>
  <use xlink:href="#glyph5-2" x="114.355249" y="284.383"/>
  <use xlink:href="#glyph5-3" x="117.12286" y="284.383"/>
</g>
<g style="fill:rgb(0%,0%,100%);fill-opacity:1;">
  <use xlink:href="#glyph3-2" x="122.658" y="280.193"/>
</g>
<g style="fill:rgb(0%,0%,100%);fill-opacity:1;">
  <use xlink:href="#glyph2-3" x="129.983" y="279.939"/>
</g>
<path style="fill:none;stroke-width:0.398;stroke-linecap:butt;stroke-linejoin:miter;stroke:rgb(0%,0%,100%);stroke-opacity:1;stroke-miterlimit:10;" d="M 0.001375 -0.00153125 L 4.790437 -0.00153125 " transform="matrix(1,0,0,-1,129.983,281.893)"/>
<g style="fill:rgb(0%,0%,100%);fill-opacity:1;">
  <use xlink:href="#glyph3-2" x="130.393" y="287.819"/>
</g>
<path style="fill:none;stroke-width:0.3985;stroke-linecap:butt;stroke-linejoin:miter;stroke:rgb(0%,0%,0%);stroke-opacity:1;stroke-miterlimit:10;" d="M -0.00025 113.389094 L -0.00025 283.467219 " transform="matrix(1,0,0,-1,40.094,363.768)"/>
<path style="fill:none;stroke-width:1.19553;stroke-linecap:butt;stroke-linejoin:miter;stroke:rgb(25%,25%,25%);stroke-opacity:1;stroke-miterlimit:10;" d="M -0.00025 283.467219 L -0.00025 340.162531 " transform="matrix(1,0,0,-1,40.094,363.768)"/>
<g style="fill:rgb(25%,25%,25%);fill-opacity:1;">
  <use xlink:href="#glyph0-5" x="30.435" y="55.416"/>
</g>
<path style="fill:none;stroke-width:0.3985;stroke-linecap:butt;stroke-linejoin:miter;stroke:rgb(0%,0%,0%);stroke-opacity:1;stroke-miterlimit:10;" d="M -0.00025 240.9555 L 112.491938 240.9555 " transform="matrix(1,0,0,-1,40.094,363.768)"/>
<path style="fill:none;stroke-width:0.3985;stroke-linecap:butt;stroke-linejoin:miter;stroke:rgb(0%,0%,0%);stroke-opacity:1;stroke-dasharray:2.98883,2.98883;stroke-miterlimit:10;" d="M 112.491938 240.9555 L 140.839594 240.9555 " transform="matrix(1,0,0,-1,40.094,363.768)"/>
<path style="fill:none;stroke-width:0.3985;stroke-linecap:butt;stroke-linejoin:miter;stroke:rgb(0%,0%,0%);stroke-opacity:1;stroke-dasharray:2.98883,2.98883;stroke-miterlimit:10;" d="M -0.00025 340.162531 L 140.839594 340.162531 " transform="matrix(1,0,0,-1,40.094,363.768)"/>
<path style="fill:none;stroke-width:0.3985;stroke-linecap:butt;stroke-linejoin:miter;stroke:rgb(56.25%,0%,18.75%);stroke-opacity:1;stroke-miterlimit:10;" d="M 126.663813 241.412531 L 126.663813 339.701594 " transform="matrix(1,0,0,-1,40.094,363.768)"/>
<path style="fill:none;stroke-width:0.31879;stroke-linecap:round;stroke-linejoin:round;stroke:rgb(56.25%,0%,18.75%);stroke-opacity:1;stroke-miterlimit:10;" d="M -1.194754 1.593163 C -1.097097 0.995506 0.00055875 0.100975 0.297434 -0.0005875 C 0.00055875 -0.0982437 -1.097097 -0.996681 -1.194754 -1.594337 " transform="matrix(0,1,1,0,166.7584,122.35491)"/>
<path style="fill:none;stroke-width:0.31879;stroke-linecap:round;stroke-linejoin:round;stroke:rgb(56.25%,0%,18.75%);stroke-opacity:1;stroke-miterlimit:10;" d="M -1.197149 1.594347 C -1.095586 0.996691 -0.00183625 0.0982537 0.298945 0.0005975 C -0.00183625 -0.100965 -1.095586 -0.995496 -1.197149 -1.593153 " transform="matrix(0,-1,-1,0,166.75841,24.06457)"/>
<g style="fill:rgb(56.25%,0%,18.75%);fill-opacity:1;">
  <use xlink:href="#glyph2-4" x="174.801" y="72.227"/>
</g>
<g style="fill:rgb(56.25%,0%,18.75%);fill-opacity:1;">
  <use xlink:href="#glyph6-1" x="178.948" y="69.221"/>
</g>
<path style="fill:none;stroke-width:0.398;stroke-linecap:butt;stroke-linejoin:miter;stroke:rgb(56.25%,0%,18.75%);stroke-opacity:1;stroke-miterlimit:10;" d="M 0.00065625 -0.00115625 L 14.692062 -0.00115625 " transform="matrix(1,0,0,-1,171.472,73.659)"/>
<g style="fill:rgb(56.25%,0%,18.75%);fill-opacity:1;">
  <use xlink:href="#glyph2-1" x="171.472" y="79.586"/>
</g>
<g style="fill:rgb(56.25%,0%,18.75%);fill-opacity:1;">
  <use xlink:href="#glyph3-1" x="175.385" y="79.586"/>
</g>
<g style="fill:rgb(56.25%,0%,18.75%);fill-opacity:1;">
  <use xlink:href="#glyph2-2" x="181.501" y="79.586"/>
</g>
<path style="fill:none;stroke-width:1.19553;stroke-linecap:butt;stroke-linejoin:miter;stroke:rgb(0%,75%,0%);stroke-opacity:1;stroke-miterlimit:10;" d="M -29.535406 280.885187 C 31.769281 291.693781 94.097406 268.123469 132.925531 219.475031 " transform="matrix(1,0,0,-1,40.094,363.768)"/>
<path style="fill:none;stroke-width:0.3985;stroke-linecap:butt;stroke-linejoin:miter;stroke:rgb(0%,0%,0%);stroke-opacity:1;stroke-miterlimit:10;" d="M -0.00025 340.162531 L 112.491938 240.9555 " transform="matrix(1,0,0,-1,40.094,363.768)"/>
<g style="fill:rgb(0%,0%,0%);fill-opacity:1;">
  <use xlink:href="#glyph7-1" x="75.259" y="48.247"/>
</g>
<g style="fill:rgb(0%,0%,0%);fill-opacity:1;">
  <use xlink:href="#glyph8-1" x="81.223352" y="53.507114"/>
</g>
<g style="fill:rgb(0%,0%,0%);fill-opacity:1;">
  <use xlink:href="#glyph9-1" x="94.600769" y="54.236312"/>
</g>
<path style="fill:none;stroke-width:0.398;stroke-linecap:butt;stroke-linejoin:miter;stroke:rgb(0%,0%,0%);stroke-opacity:1;stroke-miterlimit:10;" d="M -0.00100814 -0.00103651 L 37.881096 -0.000321968 " transform="matrix(0.74995,0.6614,0.6614,-0.74995,100.958473,59.578014)"/>
<g style="fill:rgb(0%,0%,0%);fill-opacity:1;">
  <use xlink:href="#glyph8-2" x="95.335911" y="65.953339"/>
</g>
<g style="fill:rgb(0%,0%,0%);fill-opacity:1;">
  <use xlink:href="#glyph7-2" x="99.071412" y="69.247773"/>
</g>
<g style="fill:rgb(0%,0%,0%);fill-opacity:1;">
  <use xlink:href="#glyph7-3" x="102.651732" y="72.405348"/>
</g>
<g style="fill:rgb(0%,0%,0%);fill-opacity:1;">
  <use xlink:href="#glyph8-3" x="108.615276" y="77.664749"/>
</g>
<g style="fill:rgb(0%,0%,0%);fill-opacity:1;">
  <use xlink:href="#glyph7-3" x="116.086278" y="84.253616"/>
</g>
<g style="fill:rgb(0%,0%,0%);fill-opacity:1;">
  <use xlink:href="#glyph10-1" x="122.2945" y="85.891696"/>
</g>
<path style="fill:none;stroke-width:0.3985;stroke-linecap:butt;stroke-linejoin:miter;stroke:rgb(0%,0%,0%);stroke-opacity:1;stroke-miterlimit:10;" d="M -0.00025 113.389094 L 112.491938 240.9555 " transform="matrix(1,0,0,-1,40.094,363.768)"/>
<g style="fill:rgb(0%,0%,0%);fill-opacity:1;">
  <use xlink:href="#glyph11-1" x="100.618" y="193.553"/>
</g>
<path style="fill:none;stroke-width:0.3985;stroke-linecap:butt;stroke-linejoin:miter;stroke:rgb(0%,0%,0%);stroke-opacity:1;stroke-miterlimit:10;" d="M -0.00025 340.162531 L 105.706781 240.9555 " transform="matrix(1,0,0,-1,40.094,363.768)"/>
<g style="fill:rgb(50%,0%,0%);fill-opacity:1;">
  <use xlink:href="#glyph0-6" x="131.528" y="133.144"/>
</g>
<path style="fill:none;stroke-width:1.19553;stroke-linecap:butt;stroke-linejoin:miter;stroke:rgb(75%,37.5%,0%);stroke-opacity:1;stroke-miterlimit:10;" d="M -0.00025 240.9555 L 112.491938 240.9555 " transform="matrix(1,0,0,-1,40.094,363.768)"/>
<g style="fill:rgb(0%,0%,0%);fill-opacity:1;">
  <use xlink:href="#glyph0-2" x="28.698" y="367.172"/>
</g>
<g style="fill:rgb(0%,0%,0%);fill-opacity:1;">
  <use xlink:href="#glyph0-3" x="156.103" y="367.172"/>
</g>
<path style="fill:none;stroke-width:0.3985;stroke-linecap:butt;stroke-linejoin:miter;stroke:rgb(0%,0%,0%);stroke-opacity:1;stroke-miterlimit:10;" d="M -0.00025 -0.00153125 L 105.706781 38.475031 " transform="matrix(1,0,0,-1,40.094,363.768)"/>
<path style="fill:none;stroke-width:0.3985;stroke-linecap:butt;stroke-linejoin:miter;stroke:rgb(0%,0%,0%);stroke-opacity:1;stroke-miterlimit:10;" d="M -0.00025 -0.00153125 L 105.706781 -38.474188 " transform="matrix(1,0,0,-1,40.094,363.768)"/>
<g style="fill:rgb(0%,0%,0%);fill-opacity:1;">
  <use xlink:href="#glyph12-1" x="86.299541" y="389.484784"/>
</g>
<g style="fill:rgb(0%,0%,0%);fill-opacity:1;">
  <use xlink:href="#glyph12-2" x="89.978474" y="390.823785"/>
</g>
<path style="fill:none;stroke-width:0.398;stroke-linecap:butt;stroke-linejoin:miter;stroke:rgb(0%,0%,0%);stroke-opacity:1;stroke-miterlimit:10;" d="M -0.00159148 0.000108833 L 14.69392 -0.00130844 " transform="matrix(0.93968,0.34201,0.34201,-0.93968,82.692865,389.695959)"/>
<g style="fill:rgb(0%,0%,0%);fill-opacity:1;">
  <use xlink:href="#glyph12-1" x="80.666113" y="395.264503"/>
</g>
<g style="fill:rgb(0%,0%,0%);fill-opacity:1;">
  <use xlink:href="#glyph13-1" x="84.344021" y="396.60313"/>
</g>
<g style="fill:rgb(0%,0%,0%);fill-opacity:1;">
  <use xlink:href="#glyph12-3" x="90.091104" y="398.694863"/>
</g>
<path style="fill:none;stroke-width:0.3985;stroke-linecap:butt;stroke-linejoin:miter;stroke:rgb(0%,0%,0%);stroke-opacity:1;stroke-miterlimit:10;" d="M -0.00025 -0.00153125 L 112.491938 -0.00153125 " transform="matrix(1,0,0,-1,40.094,363.768)"/>
<path style="fill:none;stroke-width:1.19553;stroke-linecap:butt;stroke-linejoin:miter;stroke:rgb(50%,0%,0%);stroke-opacity:1;stroke-miterlimit:10;" d="M 105.706781 38.475031 L 105.706781 -38.474188 " transform="matrix(1,0,0,-1,40.094,363.768)"/>
<g style="fill:rgb(50%,0%,0%);fill-opacity:1;">
  <use xlink:href="#glyph0-7" x="135.5" y="321.774"/>
</g>
<g style="fill:rgb(50%,0%,0%);fill-opacity:1;">
  <use xlink:href="#glyph0-8" x="134.638" y="412.57"/>
</g>
<g clip-path="url(#clip1)" clip-rule="nonzero">
<path style="fill:none;stroke-width:1.19553;stroke-linecap:butt;stroke-linejoin:miter;stroke:rgb(75%,37.5%,0%);stroke-opacity:1;stroke-miterlimit:10;" d="M 97.421625 -56.243719 C 117.511469 -21.446844 117.511469 21.443781 97.421625 56.244562 " transform="matrix(1,0,0,-1,40.094,363.768)"/>
</g>
<path style="fill:none;stroke-width:0.3985;stroke-linecap:butt;stroke-linejoin:miter;stroke:rgb(0%,0%,0%);stroke-opacity:1;stroke-dasharray:2.98883,2.98883;stroke-miterlimit:10;" d="M 105.706781 38.475031 L 145.394281 38.475031 " transform="matrix(1,0,0,-1,40.094,363.768)"/>
<path style="fill:none;stroke-width:0.3985;stroke-linecap:butt;stroke-linejoin:miter;stroke:rgb(0%,0%,0%);stroke-opacity:1;stroke-dasharray:2.98883,2.98883;stroke-miterlimit:10;" d="M 105.706781 -38.474188 L 145.394281 -38.474188 " transform="matrix(1,0,0,-1,40.094,363.768)"/>
<path style="fill:none;stroke-width:0.3985;stroke-linecap:butt;stroke-linejoin:miter;stroke:rgb(50%,0%,0%);stroke-opacity:1;stroke-miterlimit:10;" d="M 134.054438 38.018 L 134.054438 -38.017156 " transform="matrix(1,0,0,-1,40.094,363.768)"/>
<path style="fill:none;stroke-width:0.31879;stroke-linecap:round;stroke-linejoin:round;stroke:rgb(50%,0%,0%);stroke-opacity:1;stroke-miterlimit:10;" d="M -1.193703 1.593212 C -1.096046 0.995556 0.00161 0.101025 0.298485 -0.0005375 C 0.00161 -0.0981938 -1.096046 -0.996631 -1.193703 -1.594288 " transform="matrix(0,-1,-1,0,174.1479,325.75161)"/>
<path style="fill:none;stroke-width:0.31879;stroke-linecap:round;stroke-linejoin:round;stroke:rgb(50%,0%,0%);stroke-opacity:1;stroke-miterlimit:10;" d="M -1.194546 1.594288 C -1.09689 0.996631 0.00076625 0.0981938 0.297641 0.0005375 C 0.00076625 -0.101025 -1.09689 -0.995556 -1.194546 -1.593212 " transform="matrix(0,1,1,0,174.1479,401.78439)"/>
<g style="fill:rgb(50%,0%,0%);fill-opacity:1;">
  <use xlink:href="#glyph5-4" x="177.666" y="366.694"/>
</g>
<g style="fill:rgb(50%,0%,0%);fill-opacity:1;">
  <use xlink:href="#glyph0-4" x="182.647" y="366.694"/>
</g>
<g style="fill:rgb(50%,0%,0%);fill-opacity:1;">
  <use xlink:href="#glyph5-1" x="189.493" y="366.694"/>
  <use xlink:href="#glyph5-2" x="193.422249" y="366.694"/>
  <use xlink:href="#glyph5-3" x="196.18986" y="366.694"/>
</g>
<g style="fill:rgb(50%,0%,0%);fill-opacity:1;">
  <use xlink:href="#glyph2-3" x="204.581" y="362.249"/>
</g>
<path style="fill:none;stroke-width:0.398;stroke-linecap:butt;stroke-linejoin:miter;stroke:rgb(50%,0%,0%);stroke-opacity:1;stroke-miterlimit:10;" d="M 0.00103125 -0.000125 L 4.790094 -0.000125 " transform="matrix(1,0,0,-1,204.581,364.203)"/>
<g style="fill:rgb(50%,0%,0%);fill-opacity:1;">
  <use xlink:href="#glyph3-2" x="204.99" y="370.129"/>
</g>
<path style="fill:none;stroke-width:1.19553;stroke-linecap:butt;stroke-linejoin:miter;stroke:rgb(0%,0%,100%);stroke-opacity:1;stroke-miterlimit:10;" d="M -0.00025 -0.00153125 L 105.706781 -0.00153125 " transform="matrix(1,0,0,-1,40.094,363.768)"/>
<g style="fill:rgb(50%,0%,0%);fill-opacity:1;">
  <use xlink:href="#glyph0-6" x="131.528" y="374.095"/>
</g>
<path style="fill:none;stroke-width:0.3985;stroke-linecap:butt;stroke-linejoin:miter;stroke:rgb(0%,0%,0%);stroke-opacity:1;stroke-dasharray:2.98883,2.98883;stroke-miterlimit:10;" d="M -0.00025 113.389094 L -0.00025 -0.00153125 " transform="matrix(1,0,0,-1,40.094,363.768)"/>
<path style="fill:none;stroke-width:0.3985;stroke-linecap:butt;stroke-linejoin:miter;stroke:rgb(0%,0%,0%);stroke-opacity:1;stroke-dasharray:2.98883,2.98883;stroke-miterlimit:10;" d="M 112.491938 240.9555 L 112.491938 -0.00153125 " transform="matrix(1,0,0,-1,40.094,363.768)"/>
<path style="fill:none;stroke-width:0.3985;stroke-linecap:butt;stroke-linejoin:miter;stroke:rgb(0%,0%,0%);stroke-opacity:1;stroke-dasharray:2.98883,2.98883;stroke-miterlimit:10;" d="M 105.706781 240.9555 L 105.706781 38.475031 " transform="matrix(1,0,0,-1,40.094,363.768)"/>
</g>
</svg>
